Country,Author,File,Description
EE.UU / USA,Sonaal Bangera on Unsplash,EEUU_Gran_Canon.jpg,Gran Cañón - EE.UU.
México,Darvin Santon on Pixabay,Mexico_Chichen_Itza.jpg,Chichen Itza - México
España / Spain,Walkerssk on Pixabay,Espana_Alhambra.jpg,Alhambra - España
Guatemala,Perry Grone on Unsplash,Guatemala_Tikal.jpg,Tikal - Guatemala
Honduras,Youngrobv on Flickr,Honduras_Copan.jpg,Copan - Honduras
Venezuela,Rafael Estrella on Flickr,Venezuela_Salto_del_Angel.jpg,Salto del Ángel - Venezuela
Ecuador,Diego Delso en Wikimedia Commons,Ecuador_Islas_Galapagos.jpg,Islas Galápagos – Ecuador
Canadá,Brigachtal on Pixabay,Canada_PN_Kluane.jpg,Parque Nacional Kluane – Canadá
Nicaragua,Brassmaster on Wikimedia Commons,Nicaragua_Catedral_Asuncion_Leon.jpg,Catedral de la Asunción - Nicaragua
Costa Rica,Anita Gould on Flickr,Costa_Rica_Esferas_de_Diquis.jpg,Esferas de piedra de Diquís - Costa Rica
Panamá,Ayaita on Wikimedia Commons,Panama_Panama_Viejo.jpg,Panamá Viejo - Panamá
Cuba,David Mark on Pixabay,Cuba_Habana_Vieja.jpg,Habana Vieja – Cuba
República Dominicana / Dominican Republic,Neufal54 on Goodfreephotos,Republica_Dominicana_Catedral_Santo_Domingo.jpg,Catedral de Santo Domingo - República Dominicana
Colombia,Juniorlink on Pixabay,Colombia_Cartagena_de_Indias.jpg,Cartagena de Indias - Colombia
Perú,Babak Fakhamzadeh on Unsplash,Peru_Machu_Picchu.jpg,Machu Picchu – Perú
Bolivia,Valdiney Pimenta,Bolivia_Casa_de_la_Moneda_Potosi.jpg,Casa de la Moneda - Bolivia
Argentina,Rachel Jarboe on Unsplash,Argentina_Perito_Moreno.jpg,Perito Moreno - Argentina
Chile,Yerson Retamal on Pixabay,Chile_Rapa_Nui.jpg,Rapa Nui - Chile
Uruguay,Nelson Perez on Wikimedia Commons,Uruguay_Colonia_del_Sacramento.jpg,Colonia del Sacramento - Uruguay
Paraguay,Greg Schecheter on Wikimedia Commons,Paraguay_Mision_Jesuitica_Tavarangue.jpg,Misión Jesuítica de Jesús de Tavarangüé - Paraguay
Inglaterra / England,Jack B. on Unsplash,Inglaterra_Stonehenge.jpg,Stonehenge - Inglaterra
Irlanda / Ireland,Alanbatt on Pixabay,Irlanda_Galway_Abbey.jpg,Galway Abbey – Irlanda
Escocia / Scotland,J McSporran on Flickr,Escocia_Edimburgo.jpg,Edimburgo - Escocia
El Salvador,Wikicommons,El_Salvador_Plaza_Libertad.png,Plaza Libertad - El Salvador
Australia,Moremilu on Pixabay,Australia_Sydney.jpg,Sydney - Australia
Bahamas,Tomhsk on Pixabay,Bahamas_Lighthouse.jpg,Nassau Island Lighthouse - Bahamas
Barbados,Berit Watkin on Flickr,Barbados_Barbados_Beach.jpg,Barbados Beach - Barbados
Jamaica,Nick Sherman on Flickr,Jamaica_Blue_Mountains.jpg,Blue Mountains - Jamaica
La India,Logga Wiggler on Pixabay,La_India_Taj_Mahal.jpg,Taj Mahal - La India
,,,
,,,
https://bingobaker.com/view/2551755,,,
